{
    "email": {
        "type": "string",
        "index": true
    },
    "token": {
        "type": "string"
    },
    "created_at": {
        "type": "timestamp",
        "nullable": true
    }
}
